{
  "name": "goldspotprices",
  "title": "Goldspotprices",
  "resources": [
    {
      "path": "federal-funds-rate-daily.csv",
      "pathType": "local",
      "name": "federal-funds-rate-daily",
      "format": "csv",
      "mediatype": "text/csv",
      "encoding": "ISO-8859-2",
      "dialect": {
        "delimiter": ",",
        "quoteChar": "\""
      },
      "schema": {
        "fields": [
          {
            "name": "Date",
            "type": "date",
            "format": "default"
          },
          {
            "name": "Rate (%)",
            "type": "number",
            "format": "default"
          }
        ],
        "missingValues": [
          ""
        ]
      }
    },
    {
      "path": "gdp-quarterly.csv",
      "pathType": "local",
      "name": "gdp-quarterly",
      "format": "csv",
      "mediatype": "text/csv",
      "encoding": "ISO-8859-1",
      "dialect": {
        "delimiter": ",",
        "quoteChar": "\""
      },
      "schema": {
        "fields": [
          {
            "name": "Date",
            "type": "date",
            "format": "default"
          },
          {
            "name": "GDP (billion $)",
            "type": "number",
            "format": "default"
          },
          {
            "name": "Change(%)",
            "type": "number",
            "format": "default"
          }
        ],
        "missingValues": [
          ""
        ]
      }
    },
    {
      "path": "gold-spot-prices-daily.csv",
      "pathType": "local",
      "name": "gold-spot-prices-daily",
      "format": "csv",
      "mediatype": "text/csv",
      "encoding": "ISO-8859-1",
      "dialect": {
        "delimiter": ",",
        "quoteChar": "\""
      },
      "schema": {
        "fields": [
          {
            "name": "Date",
            "type": "date",
            "format": "default"
          },
          {
            "name": "Price (US $ / troy ounce)",
            "type": "number",
            "format": "default"
          }
        ],
        "missingValues": [
          ""
        ]
      }
    },
    {
      "path": "process.py",
      "pathType": "local",
      "name": "process",
      "format": "py",
      "encoding": "ISO-8859-1"
    },
    {
      "path": "two-year-treasury-daily.csv",
      "pathType": "local",
      "name": "two-year-treasury-daily",
      "format": "csv",
      "mediatype": "text/csv",
      "encoding": "ISO-8859-2",
      "dialect": {
        "delimiter": ",",
        "quoteChar": "\""
      },
      "schema": {
        "fields": [
          {
            "name": "Date",
            "type": "date",
            "format": "default"
          },
          {
            "name": "Rate (%)",
            "type": "number",
            "format": "default"
          }
        ],
        "missingValues": [
          ""
        ]
      }
    },
    {
      "path": "unemployment-rate-monthly.csv",
      "pathType": "local",
      "name": "unemployment-rate-monthly",
      "format": "csv",
      "mediatype": "text/csv",
      "encoding": "ISO-8859-2",
      "dialect": {
        "delimiter": ",",
        "quoteChar": "\""
      },
      "schema": {
        "fields": [
          {
            "name": "Date",
            "type": "date",
            "format": "default"
          },
          {
            "name": "Rate (%)",
            "type": "number",
            "format": "default"
          }
        ],
        "missingValues": [
          ""
        ]
      }
    },
    {
      "path": "ten-year-treasury-daily.csv",
      "pathType": "local",
      "name": "ten-year-treasury-daily",
      "format": "csv",
      "mediatype": "text/csv",
      "encoding": "ISO-8859-2",
      "dialect": {
        "delimiter": ",",
        "quoteChar": "\""
      },
      "schema": {
        "fields": [
          {
            "name": "Date",
            "type": "date",
            "format": "default"
          },
          {
            "name": "Rate (%)",
            "type": "number",
            "format": "default"
          }
        ],
        "missingValues": [
          ""
        ]
      }
    },
    {
      "path": "requirements.txt",
      "pathType": "local",
      "name": "requirements",
      "format": "txt",
      "mediatype": "text/plain",
      "encoding": "ISO-8859-1"
    }
  ],
  "licenses": [
    {
      "name": "ODC-PDDL",
      "path": "http://opendatacommons.org/licenses/pddl/",
      "title": "Open Data Commons Public Domain Dedication and License"
    }
  ]
}